Estimación del empleo
…
bynames <-   t(combn(bynames, 2)) 
bynames <- rbind(c("depto","depto"),bynames)

dat_df = map(1:nrow(bynames),
             ~Indicadores_censo(poststrat_df, unique(c("depto", bynames[.x,]) )))

dat_df

[[1]]
# A tibble: 24 × 4
   depto    TD    TO    TP
   <chr> <dbl> <dbl> <dbl>
 1 01    5.04   55.4  58.3
 2 02    0.945  76.7  77.5
 3 03    3.62   61.1  63.4
 4 04    5.67   56.1  59.5
 5 05    2.65   78.4  80.5
 6 06    2.08   78.9  80.6
 7 07    8.86   55.4  60.8
 8 08    8.12   52.3  57.0
 9 09    3.15   60.6  62.6
10 10    6.77   56.3  60.4
# … with 14 more rows

[[2]]
# A tibble: 96 × 6
   depto area  sexo     TD    TO    TP
   <chr> <chr> <chr> <dbl> <dbl> <dbl>
 1 01    0     1     2.34   72.9  74.6
 2 01    0     2     3.59   47.1  48.9
 3 01    1     1     5.04   67.5  71.1
 4 01    1     2     7.92   42.2  45.9
 5 02    0     1     0.466  88.0  88.4
 6 02    0     2     0.719  69.9  70.4
 7 02    1     1     1.48   81.2  82.4
 8 02    1     2     2.38   59.3  60.8
 9 03    0     1     1.56   78.4  79.6
10 03    0     2     2.46   54.8  56.2
# … with 86 more rows

[[3]]
# A tibble: 192 × 6
   depto area  edad      TD    TO    TP
   <chr> <chr> <chr>  <dbl> <dbl> <dbl>
 1 01    0     2      6.17   49.4  52.7
 2 01    0     3      2.65   83.4  85.7
 3 01    0     4      1.58   75.9  77.2
 4 01    0     5      0.507  35.1  35.3
 5 01    1     2     12.0    38.6  43.9
 6 01    1     3      5.62   76.3  80.9
 7 01    1     4      3.87   68.0  70.7
 8 01    1     5      1.38   26.5  26.9
 9 02    0     2      1.10   76.2  77.0
10 02    0     3      0.499  94.3  94.8
# … with 182 more rows

[[4]]
# A tibble: 144 × 6
   depto area  etnia    TD    TO    TP
   <chr> <chr> <chr> <dbl> <dbl> <dbl>
 1 01    0     1     0.661  72.3  72.8
 2 01    0     2     4.16   66.2  69.0
 3 01    0     3     3.17   57.4  59.3
 4 01    1     1     1.66   68.1  69.2
 5 01    1     2     9.17   56.7  62.4
 6 01    1     3     6.45   52.9  56.5
 7 02    0     1     0.220  85.2  85.4
 8 02    0     2     1.28   81.5  82.6
 9 02    0     3     0.953  74.4  75.1
10 02    1     1     0.447  81.2  81.6
# … with 134 more rows

[[5]]
# A tibble: 192 × 6
   depto area  anoest    TD    TO    TP
   <chr> <chr> <chr>  <dbl> <dbl> <dbl>
 1 01    0     1      0.844  43.0  43.3
 2 01    0     2      1.36   59.6  60.4
 3 01    0     3      3.89   62.2  64.7
 4 01    0     4      4.70   70.3  73.8
 5 01    1     1      2.01   32.1  32.8
 6 01    1     2      2.75   45.9  47.2
 7 01    1     3      6.46   48.3  51.7
 8 01    1     4      7.14   61.5  66.3
 9 02    0     1      0.130  73.8  73.9
10 02    0     2      0.264  79.5  79.7
# … with 182 more rows

[[6]]
# A tibble: 96 × 6
   depto area  discapacidad    TD    TO    TP
   <chr> <chr> <chr>        <dbl> <dbl> <dbl>
 1 01    0     0            2.99   59.8  61.6
 2 01    0     1            1.57   50.7  51.5
 3 01    1     0            6.45   53.9  57.7
 4 01    1     1            4.09   43.6  45.4
 5 02    0     0            0.593  80.5  81.0
 6 02    0     1            0.314  72.9  73.1
 7 02    1     0            1.93   71.1  72.5
 8 02    1     1            1.05   60.9  61.5
 9 03    0     0            2.07   66.4  67.8
10 03    0     1            1.01   59.8  60.5
# … with 86 more rows

[[7]]
# A tibble: 192 × 6
   depto sexo  edad      TD    TO    TP
   <chr> <chr> <chr>  <dbl> <dbl> <dbl>
 1 01    1     2      7.89   58.8  63.9
 2 01    1     3      3.60   88.2  91.5
 3 01    1     4      2.45   83.8  85.9
 4 01    1     5      0.800  45.7  46.0
 5 01    2     2     12.5    30.1  34.4
 6 01    2     3      5.74   70.4  74.7
 7 01    2     4      3.69   59.7  62.0
 8 01    2     5      1.14   18.0  18.2
 9 02    1     2      1.45   82.9  84.1
10 02    1     3      0.669  96.3  96.9
# … with 182 more rows

[[8]]
# A tibble: 144 × 6
   depto sexo  etnia     TD    TO    TP
   <chr> <chr> <chr>  <dbl> <dbl> <dbl>
 1 01    1     1      0.844  82.7  83.4
 2 01    1     2      6.15   73.1  77.9
 3 01    1     3      4.21   68.6  71.6
 4 01    2     1      1.14   59.0  59.7
 5 01    2     2     10.3    46.8  52.2
 6 01    2     3      6.60   43.2  46.2
 7 02    1     1      0.196  92.0  92.2
 8 02    1     2      1.62   86.3  87.7
 9 02    1     3      1.12   82.3  83.2
10 02    2     1      0.294  76.5  76.8
# … with 134 more rows

[[9]]
# A tibble: 192 × 6
   depto sexo  anoest    TD    TO    TP
   <chr> <chr> <chr>  <dbl> <dbl> <dbl>
 1 01    1     1      0.919  56.9  57.5
 2 01    1     2      1.42   66.8  67.8
 3 01    1     3      4.28   67.2  70.2
 4 01    1     4      5.27   76.3  80.6
 5 01    2     1      1.33   31.3  31.7
 6 01    2     2      2.35   44.3  45.4
 7 01    2     3      6.88   41.2  44.2
 8 01    2     4      8.66   51.2  56.1
 9 02    1     1      0.129  82.2  82.3
10 02    1     2      0.260  84.7  85.0
# … with 182 more rows

[[10]]
# A tibble: 96 × 6
   depto sexo  discapacidad    TD    TO    TP
   <chr> <chr> <chr>        <dbl> <dbl> <dbl>
 1 01    1     0            4.13   70.2  73.2
 2 01    1     1            2.27   61.2  62.6
 3 01    2     0            6.47   44.7  47.8
 4 01    2     1            3.73   34.1  35.4
 5 02    1     0            0.788  86.6  87.3
 6 02    1     1            0.417  80.4  80.7
 7 02    2     0            1.27   67.4  68.3
 8 02    2     1            0.636  55.9  56.2
 9 03    1     0            2.99   75.2  77.5
10 03    1     1            1.60   68.3  69.4
# … with 86 more rows

[[11]]
# A tibble: 288 × 6
   depto edad  etnia     TD    TO    TP
   <chr> <chr> <chr>  <dbl> <dbl> <dbl>
 1 01    2     1      1.93   63.2  64.4
 2 01    2     2     14.7    44.8  52.6
 3 01    2     3     10.5    40.8  45.6
 4 01    3     1      0.720  90.4  91.1
 5 01    3     2      6.58   80.6  86.2
 6 01    3     3      4.85   77.9  81.9
 7 01    4     1      0.390  85.0  85.4
 8 01    4     2      4.08   75.3  78.5
 9 01    4     3      3.16   70.1  72.3
10 01    5     1      0.119  48.1  48.2
# … with 278 more rows

[[12]]
# A tibble: 384 × 6
   depto edad  anoest    TD    TO    TP
   <chr> <chr> <chr>  <dbl> <dbl> <dbl>
 1 01    2     1       3.64  37.8  39.3
 2 01    2     2       4.67  44.7  46.9
 3 01    2     3       9.10  40.0  44.1
 4 01    2     4      11.8   44.7  50.7
 5 01    3     1       1.62  75.6  76.9
 6 01    3     2       2.25  79.7  81.5
 7 01    3     3       4.46  76.6  80.2
 8 01    3     4       5.59  80.2  85.0
 9 01    4     1       1.16  64.8  65.6
10 01    4     2       1.64  71.1  72.3
# … with 374 more rows

[[13]]
# A tibble: 192 × 6
   depto edad  discapacidad    TD    TO    TP
   <chr> <chr> <chr>        <dbl> <dbl> <dbl>
 1 01    2     0            9.89   42.2  46.9
 2 01    2     1            7.96   42.7  46.4
 3 01    3     0            4.68   78.5  82.4
 4 01    3     1            3.83   79.2  82.3
 5 01    4     0            3.05   70.8  73.0
 6 01    4     1            2.57   70.6  72.4
 7 01    5     0            0.938  30.6  30.9
 8 01    5     1            0.799  30.2  30.4
 9 02    2     0            1.79   71.2  72.5
10 02    2     1            1.46   70.2  71.3
# … with 182 more rows

[[14]]
# A tibble: 288 × 6
   depto etnia anoest     TD    TO    TP
   <chr> <chr> <chr>   <dbl> <dbl> <dbl>
 1 01    1     1       0.291  60.7  60.8
 2 01    1     2       0.485  76.2  76.5
 3 01    1     3       1.43   71.9  72.9
 4 01    1     4       1.72   79.6  81.0
 5 01    2     1       2.69   44.9  46.1
 6 01    2     2       3.72   60.4  62.8
 7 01    2     3       9.11   58.1  63.9
 8 01    2     4      11.1    64.8  72.9
 9 01    3     1       1.35   35.9  36.4
10 01    3     2       1.99   52.0  53.0
# … with 278 more rows

[[15]]
# A tibble: 144 × 6
   depto etnia discapacidad    TD    TO    TP
   <chr> <chr> <chr>        <dbl> <dbl> <dbl>
 1 01    1     0            1.01   71.6  72.4
 2 01    1     1            0.457  64.0  64.3
 3 01    2     0            8.28   59.0  64.3
 4 01    2     1            4.39   54.8  57.4
 5 01    3     0            5.42   55.1  58.3
 6 01    3     1            3.03   45.6  47.1
 7 02    1     0            0.247  85.3  85.5
 8 02    1     1            0.118  80.4  80.5
 9 02    2     0            2.20   78.1  79.9
10 02    2     1            1.05   74.9  75.7
# … with 134 more rows

[[16]]
# A tibble: 192 × 6
   depto anoest discapacidad    TD    TO    TP
   <chr> <chr>  <chr>        <dbl> <dbl> <dbl>
 1 01    1      0            1.13   40.6  41.1
 2 01    1      1            1.17   35.9  36.3
 3 01    2      0            1.92   54.8  55.9
 4 01    2      1            1.42   47.0  47.6
 5 01    3      0            5.41   53.8  56.9
 6 01    3      1            3.87   50.4  52.5
 7 01    4      0            6.86   62.6  67.2
 8 01    4      1            5.50   62.6  66.3
 9 02    1      0            0.159  72.9  73.0
10 02    1      1            0.177  66.2  66.3
# … with 182 more rows
…
